<?xml version="1.0" encoding="utf-8"?>
<!-- Generator: Adobe Illustrator 22.1.0, SVG Export Plug-In . SVG Version: 6.00 Build 0)  -->
<svg version="1.1" id="b1edf876-5da0-4179-85bc-2c7718e75d01"
	 xmlns="http://www.w3.org/2000/svg" xmlns:xlink="http://www.w3.org/1999/xlink" x="0px" y="0px" viewBox="0 0 1153.4 845.7"
	 style="enable-background:new 0 0 1153.4 845.7;" xml:space="preserve">
<style type="text/css">
	.st0{fill:#464353;}
	.st1{opacity:0.1;}
	.st2{fill:#6C63FF;}
</style>
<title>moving forward</title>
<path class="st0" d="M255.3,224.7h666.3c9,0,16.4,7.3,16.4,16.4v593.3c0,9-7.3,16.4-16.4,16.4H255.3c-9,0-16.4-7.3-16.4-16.4V241
	C238.9,232,246.2,224.7,255.3,224.7z"/>
<g class="st1">
	<path d="M857.7,549.4l-17.6,8.5l-142,68.5l-12.5,6c-3.5,1.7-7.7,0.2-9.3-3.3c-0.1-0.1-0.1-0.2-0.1-0.3c-0.3-0.8-0.5-1.7-0.5-2.6
		v-40.4c0-3.8-3.1-7-7-7H322.1c-3.8,0-7-3.1-7-7v-57.1c0-3.9,3.1-7,7-7h346.6c3.8,0,6.9-3.1,7-7v-41.3c0-0.9,0.2-1.8,0.5-2.6
		c1.5-3.6,5.6-5.3,9.1-3.8c0.1,0,0.2,0.1,0.4,0.2l12.5,6.1l142,69.2l17.6,8.5c3.5,1.7,4.9,5.9,3.1,9.4
		C860.2,547.6,859.1,548.7,857.7,549.4z"/>
</g>
<path class="st2" d="M857.7,544.4l-17.6,8.5l-142,68.5l-12.5,6c-3.5,1.7-7.7,0.2-9.3-3.3c-0.1-0.1-0.1-0.2-0.1-0.3
	c-0.3-0.8-0.5-1.7-0.5-2.6v-40.4c0-3.8-3.1-7-7-7H322.1c-3.8,0-7-3.1-7-7v-57.1c0-3.9,3.1-7,7-7h346.6c3.8,0,6.9-3.1,7-7v-41.3
	c0-0.9,0.2-1.8,0.5-2.6c1.5-3.6,5.6-5.3,9.1-3.8c0.1,0,0.2,0.1,0.4,0.2l12.5,6.1l142,69.2l17.6,8.5c3.5,1.7,4.9,5.9,3.1,9.4
	C860.2,542.6,859.1,543.7,857.7,544.4z"/>
</svg>
